%YAML 1.1
%TAG !u! tag:unity3d.com,2011:
--- !u!114 &11400000
MonoBehaviour:
  m_ObjectHideFlags: 0
  m_CorrespondingSourceObject: {fileID: 0}
  m_PrefabInstance: {fileID: 0}
  m_PrefabAsset: {fileID: 0}
  m_GameObject: {fileID: 0}
  m_Enabled: 1
  m_EditorHideFlags: 0
  m_Script: {fileID: 11500000, guid: 49a5b4949c72f3843a78c694c6c4e1de, type: 3}
  m_Name: SOCharacter
  m_EditorClassIdentifier: 
  pets:
  - {fileID: 11400000, guid: dbda19a65718e8341ada19abd03ca670, type: 2}
  - {fileID: 11400000, guid: cbe8c9096a1f2cf409793e63bdbce02a, type: 2}
  - {fileID: 11400000, guid: 504cd5bc0a06ced4fb2c8f916ce8dbce, type: 2}
  - {fileID: 11400000, guid: 4952691323966fd4ea14f7d068d015c2, type: 2}
  - {fileID: 11400000, guid: 504cd5bc0a06ced4fb2c8f916ce8dbce, type: 2}
  - {fileID: 11400000, guid: 4952691323966fd4ea14f7d068d015c2, type: 2}
  items:
  - {fileID: 11400000, guid: 7083ac89d17771749be9e8ebd0f6db54, type: 2}
  - {fileID: 11400000, guid: 31fa349b65a7c594ba03be8854b239fc, type: 2}
  - {fileID: 11400000, guid: 7d1dbea258563bc4fb4336cc763202fd, type: 2}
  - {fileID: 11400000, guid: fd6f924754cba244b9886d6a2e664d43, type: 2}
  - {fileID: 11400000, guid: 7f9bc1dcf7b87654b9ecfc1032efbeb8, type: 2}
  - {fileID: 11400000, guid: bc9c97a40b810bc49857c93881d2c331, type: 2}
  - {fileID: 11400000, guid: fcf993a17f85d5b41808cb633de6e44e, type: 2}
  - {fileID: 11400000, guid: 329c90ef71938f842982453634f3b6bf, type: 2}
  position: {x: -0.47, y: 3.3700004}
  sceneToLoad: 1
  angularVelocity: 65.35619
