%YAML 1.1
%TAG !u! tag:unity3d.com,2011:
--- !u!114 &11400000
MonoBehaviour:
  m_ObjectHideFlags: 0
  m_CorrespondingSourceObject: {fileID: 0}
  m_PrefabInstance: {fileID: 0}
  m_PrefabAsset: {fileID: 0}
  m_GameObject: {fileID: 0}
  m_Enabled: 1
  m_EditorHideFlags: 0
  m_Script: {fileID: 11500000, guid: a1dc2d200492a2d41863ef243a918a28, type: 3}
  m_Name: Pet7
  m_EditorClassIdentifier: 
  name: pet7
  sprite: {fileID: 21300000, guid: 979720ccfb5895541848b83e13c69312, type: 3}
  maxHp: 25
  hp: 25
  dmg: 5
  agl: 5
  def: 5
  type: 1
  attacks:
  - {fileID: 11400000, guid: bdeeff54025ca4d41a2b7a4fa14c3a23, type: 2}
  - {fileID: 11400000, guid: bd20dc0694308ba40bf8fe4bfdcb5941, type: 2}
  - {fileID: 11400000, guid: c9f63bf5bf23e9d41b153828bb6760ac, type: 2}
  maxXp: 129
  xp: 0
  lvl: 5
