%YAML 1.1
%TAG !u! tag:unity3d.com,2011:
--- !u!114 &11400000
MonoBehaviour:
  m_ObjectHideFlags: 0
  m_CorrespondingSourceObject: {fileID: 0}
  m_PrefabInstance: {fileID: 0}
  m_PrefabAsset: {fileID: 0}
  m_GameObject: {fileID: 0}
  m_Enabled: 1
  m_EditorHideFlags: 0
  m_Script: {fileID: 11500000, guid: b0956b81852661042a37a929e1819ab3, type: 3}
  m_Name: DMGx
  m_EditorClassIdentifier: 
  name: AtaqueX
  sprite: {fileID: 21300000, guid: 8a51903291fe29247b7b3c8a68429879, type: 3}
  quantity: 5
  extraHP: 0
  extraDMG: 10
  extraAGL: 0
  extraDEF: 0
  descripcion: Ataque XAumenta el Ataque en combate. Al intercambiar de Pokemon,
    el efecto desaparece.
  showStats: 1
  forTheEnemy: 0
